Proyectos/Pry_1/src/deco_gray.vcd
$date
	Wed Feb 07 13:14:39 2024
$end
$version
	Icarus Verilog
$end
$timescale
	1ps
$end
$scope module test $end
$var wire 4 ! codigo_bin_led_o [3:0] $end
$var wire 7 " catodo_o [6:0] $end
$var wire 2 # anodo_o [1:0] $end
$var reg 1 $ clk_i $end
$var reg 4 % codigo_gray_i [3:0] $end
$var reg 1 & rst_i $end
$scope module DUT $end
$var wire 1 $ clk_pi $end
$var wire 4 ' codigo_bin_led_po [3:0] $end
$var wire 4 ( codigo_gray_pi [3:0] $end
$var wire 1 & rst_pi $end
$var wire 4 ) codigo_bin [3:0] $end
$var wire 8 * codigo_bcd [7:0] $end
$var wire 7 + catodo_po [6:0] $end
$var wire 2 , anodo_po [1:0] $end
$var parameter 32 - DISPLAY_REFRESH $end
$var parameter 32 . INPUT_REFRESH $end
$scope module SUBMODULO_BIN_BCD $end
$var wire 1 $ clk_i $end
$var wire 1 & rst_i $end
$var wire 4 / bin_i [3:0] $end
$var parameter 32 0 FIN $end
$var parameter 32 1 IDLE $end
$var parameter 32 2 SHIFT $end
$var parameter 32 3 SUMA_DECENAS $end
$var parameter 32 4 SUMA_UNIDADES $end
$var parameter 32 5 WIDTH $end
$var reg 8 6 bcd_o [7:0] $end
$var reg 12 7 double_dabble_r [11:0] $end
$var reg 1 8 ready $end
$var reg 2 9 shift_count [1:0] $end
$var reg 3 : state [2:0] $end
$upscope $end
$scope module SUBMODULO_DISPLAY $end
$var wire 8 ; bcd_i [7:0] $end
$var wire 1 $ clk_i $end
$var wire 1 & rst_i $end
$var parameter 32 < DISPLAY_REFRESH $end
$var parameter 32 = WIDTH_DISPLAY_COUNTER $end
$var reg 2 > anodo_o [1:0] $end
$var reg 7 ? catodo_o [6:0] $end
$var reg 3 @ cuenta_salida [2:0] $end
$var reg 1 A decena_unidad $end
$var reg 4 B digito_o [3:0] $end
$var reg 1 C en_conmutador $end
$upscope $end
$scope module SUBMODULO_LECTURA $end
$var wire 1 $ clk_i $end
$var wire 4 D codigo_gray_i [3:0] $end
$var wire 1 & rst_i $end
$var parameter 32 E INPUT_REFRESH $end
$var parameter 32 F WIDTH $end
$var parameter 32 G WIDTH_INPUT_COUNTER $end
$var reg 4 H codigo_bin_o [3:0] $end
$var reg 4 I codigo_gray_sync_r [3:0] $end
$var reg 3 J cuenta_entrada [2:0] $end
$var reg 1 K en_lectura $end
$upscope $end
$upscope $end
$upscope $end
$enddefinitions $end
$comment Show the parameter values. $end
$dumpall
b11 G
b100 F
b110 E
b11 =
b101 <
b100 5
b10 4
b1 3
b11 2
b0 1
b100 0
b110 .
b101 -
$end
#0
$dumpvars
0K
b101 J
b0 I
b0 H
b0 D
0C
b0 B
0A
b100 @
b1000000 ?
b10 >
b0 ;
b0 :
b11 9
08
b0 7
b0 6
b0 /
b10 ,
b1000000 +
b0 *
b0 )
b0 (
b1111 '
0&
b0 %
1$
b10 #
b1000000 "
b1111 !
$end
#10000
0$
#20000
1$
#30000
0$
b1 %
b1 (
b1 D
1&
#40000
b100 J
b1 :
b11 @
1$
#50000
0$
#60000
b10 @
b10 :
b11 J
1$
#70000
0$
#80000
b10 J
b11 :
b1 @
1$
#90000
0$
#100000
b0 @
b1 :
b10 9
b1 J
1$
#110000
0$
#120000
b0 J
b10 :
1C
b100 @
1$
#130000
0$
b11 %
b11 (
b11 D
#140000
b1 #
b1 ,
b1 >
1A
0C
b11 @
b11 :
1K
b101 J
1$
#150000
0$
#160000
b1101 !
b1101 '
b10 )
b10 /
b10 H
0K
b100 J
b11 I
b1 :
b1 9
b10 @
1$
#170000
0$
#180000
b1 @
b10 :
b11 J
1$
#190000
0$
#200000
b10 J
b11 :
b0 @
1$
#210000
0$
#220000
1C
b100 @
b1 :
b0 9
b1 J
1$
#230000
0$
b10 %
b10 (
b10 D
#240000
b10 #
b10 ,
b10 >
b0 J
b10 :
0C
b11 @
0A
1$
#250000
0$
#260000
b10 @
b11 :
1K
b101 J
1$
#270000
0$
#280000
b1100 !
b1100 '
b11 )
b11 /
b11 H
0K
b100 J
b10 I
b100 :
b11 9
b1 @
1$
#290000
0$
#300000
b0 @
b0 :
18
b11 J
1$
#310000
0$
#320000
b10 J
b1 :
08
b11 7
1C
b100 @
1$
#330000
0$
b110 %
b110 (
b110 D
#340000
b1 #
b1 ,
b1 >
1A
0C
b11 @
b10 :
b1 J
1$
#350000
0$
#360000
b0 J
b11 :
b10 @
1$
#370000
0$
#380000
b1 @
b1 :
b10 9
b110 7
1K
b101 J
1$
#390000
0$
#400000
b1011 !
b1011 '
b100 )
b100 /
b100 H
0K
b100 J
b110 I
b10 :
b0 @
1$
#410000
0$
#420000
1C
b100 @
b11 :
b11 J
1$
#430000
0$
b111 %
b111 (
b111 D
#440000
b10 #
b10 ,
b10 >
b10 J
b1 :
b1 9
b1100 7
0C
b11 @
0A
1$
#450000
0$
#460000
b10 @
b10 :
b1 J
1$
#470000
0$
#480000
b0 J
b11 :
b1 @
1$
#490000
0$
#500000
b0 @
b1 :
b0 9
b11000 7
1K
b101 J
1$
#510000
0$
#520000
b1010 !
b1010 '
b101 )
b101 /
b101 H
0K
b100 J
b111 I
b10 :
1C
b100 @
1$
#530000
0$
b101 %
b101 (
b101 D
#540000
b1 #
b1 ,
b1 >
1A
0C
b11 @
b11 :
b11 J
1$
#550000
0$
#560000
b10 J
b100 :
b11 9
b110000 7
b10 @
1$
#570000
0$
#580000
b1 @
b0 :
18
b1 J
1$
#590000
0$
#600000
b0 J
b1 :
08
b101 7
b11 *
b11 6
b11 ;
b0 @
1$
#610000
0$
#620000
1C
b100 @
b10 :
1K
b101 J
1$
#630000
0$
b100 %
b100 (
b100 D
#640000
b1000 !
b1000 '
b110000 "
b110000 +
b110000 ?
b111 )
b111 /
b111 H
b11 B
b10 #
b10 ,
b10 >
0K
b100 J
b100 I
b11 :
0C
b11 @
0A
1$
#650000
0$
#660000
b10 @
b1 :
b10 9
b1010 7
b11 J
1$
#670000
0$
#680000
b10 J
b10 :
b1 @
1$
#690000
0$
#700000
b0 @
b11 :
b1 J
1$
#710000
0$
#720000
b0 J
b1 :
b1 9
b10100 7
1C
b100 @
1$
#730000
0$
b1100 %
b1100 (
b1100 D
#740000
b1000000 "
b1000000 +
b1000000 ?
b1 #
b1 ,
b1 >
b0 B
1A
0C
b11 @
b10 :
1K
b101 J
1$
#750000
0$
#760000
b111 !
b111 '
b1000 )
b1000 /
b1000 H
0K
b100 J
b1100 I
b11 :
b10 @
1$
#770000
0$
#780000
b1 @
b1 :
b0 9
b101000 7
b11 J
1$
#790000
0$
#800000
b10 J
b10 :
b0 @
1$
#810000
0$
#820000
1C
b100 @
b11 :
b1 J
1$
#830000
0$
b1101 %
b1101 (
b1101 D
#840000
b110000 "
b110000 +
b110000 ?
b11 B
b10 #
b10 ,
b10 >
b0 J
b100 :
b11 9
b1010000 7
0C
b11 @
0A
1$
#850000
0$
#860000
b10 @
b0 :
18
1K
b101 J
1$
#870000
0$
#880000
b110 !
b110 '
b1001 )
b1001 /
b1001 H
0K
b100 J
b1101 I
b1 :
08
b1000 7
b101 *
b101 6
b101 ;
b1 @
1$
#890000
0$
#900000
b0 @
b10 :
b11 J
1$
#910000
0$
#920000
b10 J
b11 :
1C
b100 @
1$
#930000
0$
b1111 %
b1111 (
b1111 D
#940000
b1000000 "
b1000000 +
b1000000 ?
b1 #
b1 ,
b1 >
b0 B
1A
0C
b11 @
b1 :
b10 9
b10000 7
b1 J
1$
#950000
0$
#960000
b0 J
b10 :
b10 @
1$
#970000
0$
#980000
b1 @
b11 :
1K
b101 J
1$
#990000
0$
#1000000
b101 !
b101 '
b1010 )
b1010 /
b1010 H
0K
b100 J
b1111 I
b1 :
b1 9
b100000 7
b0 @
1$
#1010000
0$
#1020000
1C
b100 @
b10 :
b11 J
1$
#1030000
0$
b1110 %
b1110 (
b1110 D
#1040000
b10010 "
b10010 +
b10010 ?
b101 B
b10 #
b10 ,
b10 >
b10 J
b11 :
0C
b11 @
0A
1$
#1050000
0$
#1060000
b10 @
b1 :
b0 9
b1000000 7
b1 J
1$
#1070000
0$
#1080000
b0 J
b10 :
b1 @
1$
#1090000
0$
#1100000
b0 @
b11 :
1K
b101 J
1$
#1110000
0$
#1120000
b100 !
b100 '
b1011 )
b1011 /
b1011 H
0K
b100 J
b1110 I
b100 :
b11 9
b10000000 7
1C
b100 @
1$
#1130000
0$
b1010 %
b1010 (
b1010 D
#1140000
b1000000 "
b1000000 +
b1000000 ?
b1 #
b1 ,
b1 >
b0 B
1A
0C
b11 @
b0 :
18
b11 J
1$
#1150000
0$
#1160000
b10 J
b1 :
08
b1011 7
b1000 *
b1000 6
b1000 ;
b10 @
1$
#1170000
0$
#1180000
b1 @
b10 :
b1 J
1$
#1190000
0$
#1200000
b0 J
b11 :
b0 @
1$
#1210000
0$
#1220000
1C
b100 @
b1 :
b10 9
b10110 7
1K
b101 J
1$
#1230000
0$
b1011 %
b1011 (
b1011 D
#1240000
b10 !
b10 '
b0 "
b0 +
b0 ?
b1101 )
b1101 /
b1101 H
b1000 B
b10 #
b10 ,
b10 >
0K
b100 J
b1011 I
b10 :
0C
b11 @
0A
1$
#1250000
0$
#1260000
b10 @
b11 :
b11 J
1$
#1270000
0$
#1280000
b10 J
b1 :
b1 9
b101100 7
b1 @
1$
#1290000
0$
#1300000
b0 @
b10 :
b1 J
1$
#1310000
0$
#1320000
b0 J
b11 :
1C
b100 @
1$
#1330000
0$
b1001 %
b1001 (
b1001 D
#1340000
b1000000 "
b1000000 +
b1000000 ?
b1 #
b1 ,
b1 >
b0 B
1A
0C
b11 @
b1 :
b0 9
b1011000 7
1K
b101 J
1$
#1350000
0$
#1360000
b1 !
b1 '
b1110 )
b1110 /
b1110 H
0K
b100 J
b1001 I
b10 :
b10 @
1$
#1370000
0$
#1380000
b1 @
b11 :
b10001000 7
b11 J
1$
#1390000
0$
#1400000
b10 J
b100 :
b11 9
b100010000 7
b0 @
1$
#1410000
0$
#1420000
1C
b100 @
b0 :
18
b1 J
1$
#1430000
0$
b1000 %
b1000 (
b1000 D
#1440000
b1111001 "
b1111001 +
b1111001 ?
b1 B
b10 #
b10 ,
b10 >
b0 J
b1 :
08
b1110 7
b10001 *
b10001 6
b10001 ;
0C
b11 @
0A
1$
#1450000
0$
#1460000
b10 @
b10 :
1K
b101 J
1$
#1470000
0$
#1480000
b0 !
b0 '
b1111 )
b1111 /
b1111 H
0K
b100 J
b1000 I
b11 :
b1 @
1$
#1490000
0$
#1500000
b0 @
b1 :
b10 9
b11100 7
b11 J
1$
#1510000
0$
#1520000
b10 J
b10 :
1C
b100 @
1$
#1530000
0$
#1540000
b1111001 "
b1111001 +
b1111001 ?
b1 #
b1 ,
b1 >
b1 B
1A
0C
b11 @
b11 :
b1 J
1$
#1550000
0$
#1560000
b0 J
b1 :
b1 9
b111000 7
b10 @
1$
#1570000
0$
#1580000
b1 @
b10 :
1K
b101 J
1$
#1590000
0$
#1600000
0K
b100 J
b11 :
b0 @
1$
#1610000
0$
#1620000
1C
b100 @
b1 :
b0 9
b1110000 7
b11 J
1$
#1630000
0$
#1640000
b1111001 "
b1111001 +
b1111001 ?
b10 #
b10 ,
b10 >
b1 B
b10 J
b10 :
0C
b11 @
0A
1$
#1650000
0$
#1660000
b10 @
b11 :
b10100000 7
b1 J
1$
#1670000
0$
#1680000
b0 J
b100 :
b11 9
b101000000 7
b1 @
1$
#1690000
0$
#1700000
b0 @
b0 :
18
1K
b101 J
1$
#1710000
0$
#1720000
0K
b100 J
b1 :
08
b1111 7
b10100 *
b10100 6
b10100 ;
1C
b100 @
1$
#1730000
0$
#1740000
b1111001 "
b1111001 +
b1111001 ?
b1 #
b1 ,
b1 >
b1 B
1A
0C
b11 @
b10 :
b11 J
1$
#1750000
0$
#1760000
b10 J
b11 :
b10 @
1$
#1770000
0$
#1780000
b1 @
b1 :
b10 9
b11110 7
b1 J
1$
#1790000
0$
#1800000
b0 J
b10 :
b0 @
1$
#1810000
0$
#1820000
1C
b100 @
b11 :
1K
b101 J
1$
#1830000
0$
#1840000
b11001 "
b11001 +
b11001 ?
b10 #
b10 ,
b10 >
b100 B
0K
b100 J
b1 :
b1 9
b111100 7
0C
b11 @
0A
1$
#1850000
0$
#1860000
b10 @
b10 :
b11 J
1$
#1870000
0$
#1880000
b10 J
b11 :
b1 @
1$
#1890000
0$
#1900000
b0 @
b1 :
b0 9
b1111000 7
b1 J
1$
#1910000
0$
#1920000
b0 J
b10 :
1C
b100 @
1$
#1930000
0$
#1940000
b1111001 "
b1111001 +
b1111001 ?
b1 #
b1 ,
b1 >
b1 B
1A
0C
b11 @
b11 :
b10101000 7
1K
b101 J
1$
#1950000
0$
#1960000
0K
b100 J
b100 :
b11 9
b101010000 7
b10 @
1$
#1970000
0$
#1980000
b1 @
b0 :
18
b11 J
1$
#1990000
0$
#2000000
b10 J
b1 :
08
b1111 7
b10101 *
b10101 6
b10101 ;
b0 @
1$
#2010000
0$
#2020000
1C
b100 @
b10 :
b1 J
1$
#2030000
0$
#2040000
b10010 "
b10010 +
b10010 ?
b10 #
b10 ,
b10 >
b101 B
b0 J
b11 :
0C
b11 @
0A
1$
#2050000
0$
#2060000
b10 @
b1 :
b10 9
b11110 7
1K
b101 J
1$
#2070000
0$
#2080000
0K
b100 J
b10 :
b1 @
1$
#2090000
0$
#2100000
b0 @
b11 :
b11 J
1$
#2110000
0$
#2120000
b10 J
b1 :
b1 9
b111100 7
1C
b100 @
1$
#2130000
0$
#2140000
b1111001 "
b1111001 +
b1111001 ?
b1 #
b1 ,
b1 >
b1 B
1A
0C
b11 @
b10 :
b1 J
1$
#2150000
0$
#2160000
b0 J
b11 :
b10 @
1$
#2170000
0$
#2180000
b1 @
b1 :
b0 9
b1111000 7
1K
b101 J
1$
#2190000
0$
#2200000
0K
b100 J
b10 :
b0 @
1$
#2210000
0$
#2220000
1C
b100 @
b11 :
b10101000 7
b11 J
1$
#2230000
0$
#2240000
b10010 "
b10010 +
b10010 ?
b10 #
b10 ,
b10 >
b101 B
b10 J
b100 :
b11 9
b101010000 7
0C
b11 @
0A
1$
#2250000
0$
#2260000
b10 @
b0 :
18
b1 J
1$
#2270000
0$
#2280000
b0 J
b1 :
08
b1111 7
b1 @
1$
#2290000
0$
#2300000
b0 @
b10 :
1K
b101 J
1$
#2310000
0$
#2320000
0K
b100 J
b11 :
1C
b100 @
1$
#2330000
0$
#2340000
b1111001 "
b1111001 +
b1111001 ?
b1 #
b1 ,
b1 >
b1 B
1A
0C
b11 @
b1 :
b10 9
b11110 7
b11 J
1$
#2350000
0$
#2360000
b10 J
b10 :
b10 @
1$
#2370000
0$
#2380000
b1 @
b11 :
b1 J
1$
#2390000
0$
#2400000
b0 J
b1 :
b1 9
b111100 7
b0 @
1$
#2410000
0$
#2420000
1C
b100 @
b10 :
1K
b101 J
1$
